Processor with matrix multiplier/mlp_mma_test.vcd
$date
     Jul 27, 2025       21:45:27
$end

$version
 SystemC 2.3.3-Accellera --- May  8 2025 13:21:02
$end

$timescale
     1 ps
$end

$scope module SystemC $end
$var wire    1  aaaaa  clk       $end
$var wire    1  aaaab  start       $end
$var wire    1  aaaac  ready       $end
$var wire    1  aaaad  startMMA       $end
$var wire    1  aaaae  intrMMA       $end
$var wire    8  aaaaf  A_0 [7:0]  $end
$var wire    8  aaaag  A_1 [7:0]  $end
$var wire    8  aaaah  A_2 [7:0]  $end
$var wire    8  aaaai  B_0_0 [7:0]  $end
$var wire    8  aaaaj  B_0_1 [7:0]  $end
$var wire    8  aaaak  B_1_0 [7:0]  $end
$var wire    8  aaaal  B_1_1 [7:0]  $end
$var wire    8  aaaam  B_2_0 [7:0]  $end
$var wire    8  aaaan  B_2_1 [7:0]  $end
$var wire   18  aaaao  result_0 [17:0]  $end
$var wire   18  aaaap  result_1 [17:0]  $end
$upscope $end
$enddefinitions  $end

$comment
All initial values are dumped below at time 0 sec = 0 timescale units.
$end

$dumpvars
0aaaaa
xaaaab
0aaaac
0aaaad
0aaaae
b0 aaaaf
b0 aaaag
b0 aaaah
b0 aaaai
b0 aaaaj
b0 aaaak
b0 aaaal
b0 aaaam
b0 aaaan
b0 aaaao
b0 aaaap
$end

#5000
1aaaaa

#10000
0aaaaa
1aaaab

#15000
1aaaaa
1aaaad

#20000
0aaaaa
0aaaab

#25000
1aaaaa
0aaaad
b1 aaaaf

#30000
0aaaaa

#35000
1aaaaa
b10 aaaag

#40000
0aaaaa

#45000
1aaaaa
b11 aaaah

#50000
0aaaaa

#55000
1aaaaa
b100 aaaai

#60000
0aaaaa

#65000
1aaaaa
b111 aaaaj

#70000
0aaaaa

#75000
1aaaaa
b101 aaaak

#80000
0aaaaa

#85000
1aaaaa
b1000 aaaal

#90000
0aaaaa

#95000
1aaaaa
b110 aaaam

#100000
0aaaaa

#105000
1aaaaa
b1001 aaaan

#110000
0aaaaa

#115000
1aaaaa
b100000 aaaao

#120000
0aaaaa

#125000
1aaaaa
b110010 aaaap

#130000
0aaaaa

#135000
1aaaaa
1aaaae

#140000
0aaaaa

#145000
1aaaaa
1aaaad
0aaaae

#150000
0aaaaa

#155000
1aaaaa
0aaaad

#160000
0aaaaa

#165000
1aaaaa

#170000
0aaaaa

#175000
1aaaaa

#180000
0aaaaa

#185000
1aaaaa
b1010 aaaai

#190000
0aaaaa

#195000
1aaaaa
b1101 aaaaj

#200000
0aaaaa

#205000
1aaaaa
b1011 aaaak

#210000
0aaaaa

#215000
1aaaaa
b1110 aaaal

#220000
0aaaaa

#225000
1aaaaa
b1100 aaaam

#230000
0aaaaa

#235000
1aaaaa
b1111 aaaan

#240000
0aaaaa

#245000
1aaaaa
b1000100 aaaao

#250000
0aaaaa

#255000
1aaaaa
b1010110 aaaap

#260000
0aaaaa

#265000
1aaaaa
1aaaae

#270000
0aaaaa

#275000
1aaaaa
1aaaad
0aaaae

#280000
0aaaaa

#285000
1aaaaa
0aaaad

#290000
0aaaaa

#295000
1aaaaa

#300000
0aaaaa

#305000
1aaaaa

#310000
0aaaaa

#315000
1aaaaa
b10000 aaaai

#320000
0aaaaa

#325000
1aaaaa
b10011 aaaaj

#330000
0aaaaa

#335000
1aaaaa
b10001 aaaak

#340000
0aaaaa

#345000
1aaaaa
b10100 aaaal

#350000
0aaaaa

#355000
1aaaaa
b10010 aaaam

#360000
0aaaaa

#365000
1aaaaa
b10101 aaaan

#370000
0aaaaa

#375000
1aaaaa
b1101000 aaaao

#380000
0aaaaa

#385000
1aaaaa
b1111010 aaaap

#390000
0aaaaa

#395000
1aaaaa
1aaaae

#400000
0aaaaa

#405000
1aaaaa
1aaaad
0aaaae

#410000
0aaaaa

#415000
1aaaaa
0aaaad

#420000
0aaaaa

#425000
1aaaaa

#430000
0aaaaa

#435000
1aaaaa

#440000
0aaaaa

#445000
1aaaaa
b10110 aaaai

#450000
0aaaaa

#455000
1aaaaa
b11001 aaaaj

#460000
0aaaaa

#465000
1aaaaa
b10111 aaaak

#470000
0aaaaa

#475000
1aaaaa
b11010 aaaal

#480000
0aaaaa

#485000
1aaaaa
b11000 aaaam

#490000
0aaaaa

#495000
1aaaaa
b11011 aaaan

#500000
0aaaaa

#505000
1aaaaa
b10001100 aaaao

#510000
0aaaaa

#515000
1aaaaa
b10011110 aaaap

#520000
0aaaaa

#525000
1aaaaa
1aaaae

#530000
0aaaaa

#535000
1aaaaa
0aaaae

